%YAML 1.1
%TAG !u! tag:unity3d.com,2011:
--- !u!114 &11400000
MonoBehaviour:
  m_ObjectHideFlags: 0
  m_CorrespondingSourceObject: {fileID: 0}
  m_PrefabInstance: {fileID: 0}
  m_PrefabAsset: {fileID: 0}
  m_GameObject: {fileID: 0}
  m_Enabled: 1
  m_EditorHideFlags: 0
  m_Script: {fileID: 11500000, guid: 827fed380fb580040b6a70ff244a45bc, type: 3}
  m_Name: Interactable_Chest
  m_EditorClassIdentifier: 
  interactionDistance: 3
  maxdistance: 4
  targetStrength: 0
  canBeInteractedWith: 1
  interactionType: 4
