%YAML 1.1
%TAG !u! tag:unity3d.com,2011:
--- !u!114 &11400000
MonoBehaviour:
  m_ObjectHideFlags: 0
  m_CorrespondingSourceObject: {fileID: 0}
  m_PrefabInstance: {fileID: 0}
  m_PrefabAsset: {fileID: 0}
  m_GameObject: {fileID: 0}
  m_Enabled: 1
  m_EditorHideFlags: 0
  m_Script: {fileID: 11500000, guid: 4b8c4df964e446e4a9b5e4892327d5d1, type: 3}
  m_Name: XBoxIcons
  m_EditorClassIdentifier: 
  iconTypeToSprite:
    keyValueData:
    - key: 2
      value: {fileID: 21300000, guid: 039c9a5cb462d6449ab25dc8ff1840b7, type: 3}
    - key: 4
      value: {fileID: 21300000, guid: 50249f616b025ae428b88b670dc6395a, type: 3}
    - key: 3
      value: {fileID: 21300000, guid: 14afffb9ddbf9c445a24278bb927a8f0, type: 3}
    - key: 7
      value: {fileID: 21300000, guid: 3ef8671ba8a33884cbc6d56cad0bd239, type: 3}
    - key: 5
      value: {fileID: 21300000, guid: 86c35ca0507c23242a6530fb9da95c2a, type: 3}
