%YAML 1.1
%TAG !u! tag:unity3d.com,2011:
--- !u!114 &-4908862159240590305
MonoBehaviour:
  m_ObjectHideFlags: 3
  m_CorrespondingSourceObject: {fileID: 0}
  m_PrefabInstance: {fileID: 0}
  m_PrefabAsset: {fileID: 0}
  m_GameObject: {fileID: 0}
  m_Enabled: 1
  m_EditorHideFlags: 0
  m_Script: {fileID: 11500000, guid: 66f335fb1ffd8684294ad653bf1c7564, type: 3}
  m_Name: ColorAdjustments
  m_EditorClassIdentifier: 
  active: 1
  postExposure:
    m_OverrideState: 1
    m_Value: 2
  contrast:
    m_OverrideState: 0
    m_Value: 22.3
  colorFilter:
    m_OverrideState: 1
    m_Value: {r: 1, g: 1, b: 1, a: 1}
  hueShift:
    m_OverrideState: 0
    m_Value: 0
  saturation:
    m_OverrideState: 1
    m_Value: -15
--- !u!114 &11400000
MonoBehaviour:
  m_ObjectHideFlags: 0
  m_CorrespondingSourceObject: {fileID: 0}
  m_PrefabInstance: {fileID: 0}
  m_PrefabAsset: {fileID: 0}
  m_GameObject: {fileID: 0}
  m_Enabled: 1
  m_EditorHideFlags: 0
  m_Script: {fileID: 11500000, guid: d7fd9488000d3734a9e00ee676215985, type: 3}
  m_Name: GlobalPPVolume Profile
  m_EditorClassIdentifier: 
  components:
  - {fileID: 8432238554540031629}
  - {fileID: -4908862159240590305}
  - {fileID: 2030032846201636140}
--- !u!114 &2030032846201636140
MonoBehaviour:
  m_ObjectHideFlags: 3
  m_CorrespondingSourceObject: {fileID: 0}
  m_PrefabInstance: {fileID: 0}
  m_PrefabAsset: {fileID: 0}
  m_GameObject: {fileID: 0}
  m_Enabled: 1
  m_EditorHideFlags: 0
  m_Script: {fileID: 11500000, guid: 899c54efeace73346a0a16faa3afe726, type: 3}
  m_Name: Vignette
  m_EditorClassIdentifier: 
  active: 1
  color:
    m_OverrideState: 1
    m_Value: {r: 0, g: 0, b: 0, a: 1}
  center:
    m_OverrideState: 0
    m_Value: {x: 0.5, y: 0.5}
  intensity:
    m_OverrideState: 1
    m_Value: 0.25
  smoothness:
    m_OverrideState: 1
    m_Value: 0.5
  rounded:
    m_OverrideState: 0
    m_Value: 0
--- !u!114 &8432238554540031629
MonoBehaviour:
  m_ObjectHideFlags: 3
  m_CorrespondingSourceObject: {fileID: 0}
  m_PrefabInstance: {fileID: 0}
  m_PrefabAsset: {fileID: 0}
  m_GameObject: {fileID: 0}
  m_Enabled: 1
  m_EditorHideFlags: 0
  m_Script: {fileID: 11500000, guid: 0b2db86121404754db890f4c8dfe81b2, type: 3}
  m_Name: Bloom
  m_EditorClassIdentifier: 
  active: 1
  skipIterations:
    m_OverrideState: 0
    m_Value: 1
  threshold:
    m_OverrideState: 1
    m_Value: 0.8
  intensity:
    m_OverrideState: 1
    m_Value: 1
  scatter:
    m_OverrideState: 1
    m_Value: 0.5
  clamp:
    m_OverrideState: 0
    m_Value: 65472
  tint:
    m_OverrideState: 1
    m_Value: {r: 0.80784315, g: 0.8160869, b: 1, a: 1}
  highQualityFiltering:
    m_OverrideState: 0
    m_Value: 0
  downscale:
    m_OverrideState: 0
    m_Value: 0
  maxIterations:
    m_OverrideState: 0
    m_Value: 6
  dirtTexture:
    m_OverrideState: 0
    m_Value: {fileID: 0}
    dimension: 1
  dirtIntensity:
    m_OverrideState: 0
    m_Value: 0
