%YAML 1.1
%TAG !u! tag:unity3d.com,2011:
--- !u!114 &11400000
MonoBehaviour:
  m_ObjectHideFlags: 0
  m_CorrespondingSourceObject: {fileID: 0}
  m_PrefabInstance: {fileID: 0}
  m_PrefabAsset: {fileID: 0}
  m_GameObject: {fileID: 0}
  m_Enabled: 1
  m_EditorHideFlags: 0
  m_Script: {fileID: 11500000, guid: 78c1de18bd1c35442829b3155a3dfc99, type: 3}
  m_Name: Quest_Candles
  m_EditorClassIdentifier: 
  questName: Candlies Loot
  GUID: QUEST_CANDLIES
  isUnique: 1
  npcThatOffers: {fileID: 11400000, guid: 1caf24e8d9ba19243b5668c4765e21d9, type: 2}
  questObjective:
    rid: 4950342513204658221
  questReward:
    rid: 4950342513204658225
  references:
    version: 2
    RefIds:
    - rid: 4950342513204658221
      type: {class: QuestObjectiveLoot, ns: , asm: Assembly-CSharp}
      data:
        questType: 2
        amountNeed: 5
        itemGUID: ITEM_CANDLE
        itemData: {fileID: 11400000, guid: 809037b11b12ee044a868f7b9fcbfd9e, type: 2}
    - rid: 4950342513204658225
      type: {class: QuestReward, ns: , asm: Assembly-CSharp}
      data:
        amount: 50
        item: {fileID: 11400000, guid: e9907f08add49a5458d7e3f81505cf7c, type: 2}
