%YAML 1.1
%TAG !u! tag:unity3d.com,2011:
--- !u!114 &11400000
MonoBehaviour:
  m_ObjectHideFlags: 0
  m_CorrespondingSourceObject: {fileID: 0}
  m_PrefabInstance: {fileID: 0}
  m_PrefabAsset: {fileID: 0}
  m_GameObject: {fileID: 0}
  m_Enabled: 1
  m_EditorHideFlags: 0
  m_Script: {fileID: 11500000, guid: 493d54923b288a440ad8108da72ae8fe, type: 3}
  m_Name: Mask_Walker
  m_EditorClassIdentifier: 
  itemType: 5
  GUID: MASK_WALKER
  displayName: Walker Mask
  icon: {fileID: 21300000, guid: 94eb3b2124a9d2d4c83b5b2618f2c030, type: 3}
  prefab: {fileID: 5851303084138516775, guid: 5fe28ff57efc27c4fb3f5e35fc7aecc5, type: 3}
  rarity: 2
  maxRunes: 3
  stackable: 0
  maxLevel: 5
  buyAmount: 200
  sellAmount: 50
  costCurveToLevel: {fileID: 11400000, guid: 1f233083a0cb254418a7050011c252f3, type: 2}
  equipmentPrefab: {fileID: 139036203279607467, guid: 917800c9b61b8ec40898fad252e3c651,
    type: 3}
  prefabMonster: {fileID: 919132149155446097, guid: a5abe949dca1c6f4991d1eb7b4db4c8d,
    type: 3}
  additionalHealth: 0
  healthGrowth: 1
  additionalMovement: 3
  movementGrowth: 2
