%YAML 1.1
%TAG !u! tag:unity3d.com,2011:
--- !u!114 &11400000
MonoBehaviour:
  m_ObjectHideFlags: 0
  m_CorrespondingSourceObject: {fileID: 0}
  m_PrefabInstance: {fileID: 0}
  m_PrefabAsset: {fileID: 0}
  m_GameObject: {fileID: 0}
  m_Enabled: 1
  m_EditorHideFlags: 0
  m_Script: {fileID: 11500000, guid: 885f3b973f1ce8348ade093f78c09e2c, type: 3}
  m_Name: MainMenu
  m_EditorClassIdentifier: 
  gameSceneName: MainMenu
  sceneReference:
    m_AssetGUID: d821cc57b0018694293ec0a80cec270c
    m_SubObjectName: 
    m_SubObjectType: 
    m_EditorAssetChanged: 0
