%YAML 1.1
%TAG !u! tag:unity3d.com,2011:
--- !u!1 &1723758734373863965
GameObject:
  m_ObjectHideFlags: 0
  m_CorrespondingSourceObject: {fileID: 0}
  m_PrefabInstance: {fileID: 0}
  m_PrefabAsset: {fileID: 0}
  serializedVersion: 6
  m_Component:
  - component: {fileID: 4480383479790262768}
  - component: {fileID: 5085311733032633552}
  m_Layer: 0
  m_Name: Pants_U_Peasant_Rd
  m_TagString: Untagged
  m_Icon: {fileID: 0}
  m_NavMeshLayer: 0
  m_StaticEditorFlags: 0
  m_IsActive: 1
--- !u!4 &4480383479790262768
Transform:
  m_ObjectHideFlags: 0
  m_CorrespondingSourceObject: {fileID: 0}
  m_PrefabInstance: {fileID: 0}
  m_PrefabAsset: {fileID: 0}
  m_GameObject: {fileID: 1723758734373863965}
  serializedVersion: 2
  m_LocalRotation: {x: 0, y: 0, z: 0, w: 1}
  m_LocalPosition: {x: 0, y: 0, z: 0}
  m_LocalScale: {x: 1, y: 1, z: 1}
  m_ConstrainProportionsScale: 0
  m_Children: []
  m_Father: {fileID: 0}
  m_LocalEulerAnglesHint: {x: 0, y: 0, z: 0}
--- !u!114 &5085311733032633552
MonoBehaviour:
  m_ObjectHideFlags: 0
  m_CorrespondingSourceObject: {fileID: 0}
  m_PrefabInstance: {fileID: 0}
  m_PrefabAsset: {fileID: 0}
  m_GameObject: {fileID: 1723758734373863965}
  m_Enabled: 1
  m_EditorHideFlags: 0
  m_Script: {fileID: 11500000, guid: 02b63d4491d14e4588a9177a05a9c58e, type: 3}
  m_Name: 
  m_EditorClassIdentifier: 
  Type: 17
  Mappers:
  - isOpened: 1
    Materials:
    - {fileID: 2100000, guid: 71a18661fe5d4d28a872d600688f561a, type: 2}
    Wrappers:
    - Type: 0
      Enabled: 0
      Target: {fileID: 0}
    - Type: 1
      Enabled: 0
      Target: {fileID: 0}
    - Type: 2
      Enabled: 0
      Target: {fileID: 0}
    - Type: 3
      Enabled: 0
      Target: {fileID: 0}
    - Type: 4
      Enabled: 0
      Target: {fileID: 0}
    - Type: 5
      Enabled: 0
      Target: {fileID: 0}
    - Type: 6
      Enabled: 0
      Target: {fileID: 0}
    - Type: 7
      Enabled: 1
      Target: {fileID: 0}
    - Type: 8
      Enabled: 1
      Target: {fileID: 0}
    - Type: 9
      Enabled: 0
      Target: {fileID: 0}
  IsTakeTwoHands: 0
  CopySkinMaterial: 1
  Wrappers:
  - Type: 0
    Enabled: 0
    Target: {fileID: 0}
  - Type: 1
    Enabled: 0
    Target: {fileID: 0}
  - Type: 2
    Enabled: 0
    Target: {fileID: 0}
  - Type: 4
    Enabled: 0
    Target: {fileID: 0}
  - Type: 5
    Enabled: 0
    Target: {fileID: 0}
  - Type: 6
    Enabled: 0
    Target: {fileID: 0}
  - Type: 7
    Enabled: 0
    Target: {fileID: 0}
  - Type: 8
    Enabled: 0
    Target: {fileID: 0}
  - Type: 9
    Enabled: 0
    Target: {fileID: 0}
  - Type: 10
    Enabled: 0
    Target: {fileID: 0}
  - Type: 11
    Enabled: 0
    Target: {fileID: 0}
  - Type: 12
    Enabled: 0
    Target: {fileID: 0}
