%YAML 1.1
%TAG !u! tag:unity3d.com,2011:
--- !u!114 &11400000
MonoBehaviour:
  m_ObjectHideFlags: 0
  m_CorrespondingSourceObject: {fileID: 0}
  m_PrefabInstance: {fileID: 0}
  m_PrefabAsset: {fileID: 0}
  m_GameObject: {fileID: 0}
  m_Enabled: 1
  m_EditorHideFlags: 0
  m_Script: {fileID: 11500000, guid: e5ed493ae772ec542a2644bd403fda39, type: 3}
  m_Name: StoreBuyBackInventory
  m_EditorClassIdentifier: 
  GUID: STOREBUYBACKINVENTORY
  inventory:
    items: []
  references:
    version: 2
    RefIds: []
