%YAML 1.1
%TAG !u! tag:unity3d.com,2011:
--- !u!21 &2100000
Material:
  serializedVersion: 8
  m_ObjectHideFlags: 0
  m_CorrespondingSourceObject: {fileID: 0}
  m_PrefabInstance: {fileID: 0}
  m_PrefabAsset: {fileID: 0}
  m_Name: AN_Rock_3_Cov
  m_Shader: {fileID: 4800000, guid: bee44b4a58655ee4cbff107302a3e131, type: 3}
  m_Parent: {fileID: 0}
  m_ModifiedSerializedProperties: 0
  m_ValidKeywords:
  - _CELPRIMARYMODE_SINGLE
  - _DETAILMAPBLENDINGMODE_MULTIPLY
  - _GRADIENTSPACE_WORLD
  - _OUTLINESPACE_SCREEN
  - _TEXTUREBLENDINGMODE_MULTIPLY
  m_InvalidKeywords:
  - _UNITYSHADOWMODE_NONE
  m_LightmapFlags: 4
  m_EnableInstancingVariants: 0
  m_DoubleSidedGI: 0
  m_CustomRenderQueue: -1
  stringTagMap: {}
  disabledShaderPasses: []
  m_LockedProperties: 
  m_SavedProperties:
    serializedVersion: 3
    m_TexEnvs:
    - _Albedo:
        m_Texture: {fileID: 2800000, guid: e7ca0a02cb09aba45986b5e568e2ea6d, type: 3}
        m_Scale: {x: 1, y: 1}
        m_Offset: {x: 0, y: 0}
    - _BaseMap:
        m_Texture: {fileID: 2800000, guid: e7ca0a02cb09aba45986b5e568e2ea6d, type: 3}
        m_Scale: {x: 1, y: 1}
        m_Offset: {x: 0, y: 0}
    - _BumpMap:
        m_Texture: {fileID: 2800000, guid: e312add4b8aec514199bf7f0f806c32e, type: 3}
        m_Scale: {x: 1, y: 1}
        m_Offset: {x: 0, y: 0}
    - _CelCurveTexture:
        m_Texture: {fileID: 0}
        m_Scale: {x: 1, y: 1}
        m_Offset: {x: 0, y: 0}
    - _CelStepTexture:
        m_Texture: {fileID: 0}
        m_Scale: {x: 1, y: 1}
        m_Offset: {x: 0, y: 0}
    - _CoverageAlbedo:
        m_Texture: {fileID: 2800000, guid: 74fdbc03b45562c4999ac6dedb17bb5d, type: 3}
        m_Scale: {x: 6, y: 6}
        m_Offset: {x: 0, y: 0}
    - _CoverageMask:
        m_Texture: {fileID: 2800000, guid: cd460ee4ac5c1e746b7a734cc7cc64dd, type: 3}
        m_Scale: {x: 1.3, y: 1.3}
        m_Offset: {x: 0, y: 0}
    - _CoverageMask1:
        m_Texture: {fileID: 0}
        m_Scale: {x: 1, y: 1}
        m_Offset: {x: 0, y: 0}
    - _CoverageNormal:
        m_Texture: {fileID: 2800000, guid: a9e90e87f8f10c04cad14926f16f51e5, type: 3}
        m_Scale: {x: 6, y: 6}
        m_Offset: {x: 0, y: 0}
    - _CoverageTexture:
        m_Texture: {fileID: 2800000, guid: 74fdbc03b45562c4999ac6dedb17bb5d, type: 3}
        m_Scale: {x: 6, y: 6}
        m_Offset: {x: 0, y: 0}
    - _DetailAlbedoMap:
        m_Texture: {fileID: 0}
        m_Scale: {x: 1, y: 1}
        m_Offset: {x: 0, y: 0}
    - _DetailMap:
        m_Texture: {fileID: 0}
        m_Scale: {x: 1, y: 1}
        m_Offset: {x: 0, y: 0}
    - _DetailMask:
        m_Texture: {fileID: 0}
        m_Scale: {x: 1, y: 1}
        m_Offset: {x: 0, y: 0}
    - _DetailNormalMap:
        m_Texture: {fileID: 0}
        m_Scale: {x: 1, y: 1}
        m_Offset: {x: 0, y: 0}
    - _EmissionMap:
        m_Texture: {fileID: 0}
        m_Scale: {x: 1, y: 1}
        m_Offset: {x: 0, y: 0}
    - _MainTex:
        m_Texture: {fileID: 0}
        m_Scale: {x: 1, y: 1}
        m_Offset: {x: 0, y: 0}
    - _MetallicGlossMap:
        m_Texture: {fileID: 0}
        m_Scale: {x: 1, y: 1}
        m_Offset: {x: 0, y: 0}
    - _Normal:
        m_Texture: {fileID: 2800000, guid: e312add4b8aec514199bf7f0f806c32e, type: 3}
        m_Scale: {x: 1, y: 1}
        m_Offset: {x: 0, y: 0}
    - _OcclusionMap:
        m_Texture: {fileID: 0}
        m_Scale: {x: 1, y: 1}
        m_Offset: {x: 0, y: 0}
    - _ParallaxMap:
        m_Texture: {fileID: 0}
        m_Scale: {x: 1, y: 1}
        m_Offset: {x: 0, y: 0}
    - _SnowAlbedo:
        m_Texture: {fileID: 0}
        m_Scale: {x: 1, y: 1}
        m_Offset: {x: 0, y: 0}
    - _SurfaceAlbedo:
        m_Texture: {fileID: 2800000, guid: e7ca0a02cb09aba45986b5e568e2ea6d, type: 3}
        m_Scale: {x: 1, y: 1}
        m_Offset: {x: 0, y: 0}
    - _SurfaceNormal:
        m_Texture: {fileID: 2800000, guid: e312add4b8aec514199bf7f0f806c32e, type: 3}
        m_Scale: {x: 1, y: 1}
        m_Offset: {x: 0, y: 0}
    - _Texture:
        m_Texture: {fileID: 2800000, guid: e7ca0a02cb09aba45986b5e568e2ea6d, type: 3}
        m_Scale: {x: 1, y: 1}
        m_Offset: {x: 0, y: 0}
    - _TextureSample0:
        m_Texture: {fileID: 0}
        m_Scale: {x: 1, y: 1}
        m_Offset: {x: 0, y: 0}
    - _texcoord:
        m_Texture: {fileID: 0}
        m_Scale: {x: 1, y: 1}
        m_Offset: {x: 0, y: 0}
    - unity_Lightmaps:
        m_Texture: {fileID: 0}
        m_Scale: {x: 1, y: 1}
        m_Offset: {x: 0, y: 0}
    - unity_LightmapsInd:
        m_Texture: {fileID: 0}
        m_Scale: {x: 1, y: 1}
        m_Offset: {x: 0, y: 0}
    - unity_ShadowMasks:
        m_Texture: {fileID: 0}
        m_Scale: {x: 1, y: 1}
        m_Offset: {x: 0, y: 0}
    m_Ints: []
    m_Floats:
    - _AlphaClip: 0
    - _AlphaCutoff: 0.5
    - _BaseMapPremultiply: 0
    - _Blend: 0
    - _BlendNormals: 1
    - _BumpScale: 1
    - _COVERAGE: 0
    - _CameraDistanceImpact: 0
    - _CelExtraEnabled: 0
    - _CelNumSteps: 3
    - _CelPrimaryMode: 1
    - _Coverage: 0
    - _CoverageContrast: 0.7
    - _CoverageFade: 0.35
    - _CoverageFade1: 0.4
    - _CoverageLevel: -0.14
    - _CoverageLevel1: 0.3
    - _CoverageOverlayType: 0
    - _CoverageSmoothness: 0.2
    - _CoverageThickness: 1
    - _CoverageThicknessLevel: 0.5
    - _Cull: 2
    - _Cutoff: 0.5
    - _DetailMapBlendingMode: 0
    - _DetailMapImpact: 0
    - _DetailNormalMapScale: 1
    - _DstBlend: 0
    - _EnvironmentReflections: 1
    - _FlatRimEdgeSmoothness: 0.5
    - _FlatRimLightAlign: 0
    - _FlatRimSize: 0.5
    - _FlatSpecularEdgeSmoothness: 0
    - _FlatSpecularSize: 0.1
    - _Flatness: 1
    - _FlatnessExtra: 1
    - _Float0: 0.3
    - _Float2: 1
    - _GlossMapScale: 1
    - _Glossiness: 0.5
    - _GlossyReflections: 1
    - _GradientAngle: 0
    - _GradientCenterX: 0
    - _GradientCenterY: 0
    - _GradientEnabled: 0
    - _GradientSize: 10
    - _GradientSpace: 0
    - _InvertCoverage: 0
    - _LightContribution: 1
    - _LightFalloffSize: 0
    - _LightmapDirectionPitch: 0
    - _LightmapDirectionYaw: 0
    - _Metallic: 0
    - _Mode: 0
    - _OcclusionStrength: 1
    - _OutlineDepthOffset: 0
    - _OutlineEnabled: 0
    - _OutlineScale: 1
    - _OutlineSpace: 0
    - _OutlineWidth: 1
    - _OverrideLightmapDir: 0
    - _Parallax: 0.02
    - _QueueControl: 0
    - _QueueOffset: 0
    - _ReceiveShadows: 1
    - _RimEnabled: 0
    - _SNOW: 0
    - _SelfShadingSize: 0.75
    - _SelfShadingSizeExtra: 0.6
    - _ShadowEdgeSize: 0.08
    - _ShadowEdgeSizeExtra: 0.05
    - _Smoothness: 0.4
    - _SmoothnessTextureChannel: 0
    - _Snow: 0
    - _SnowAmount: 1
    - _SnowFade: 0.3
    - _SpecularEnabled: 0
    - _SpecularHighlights: 1
    - _SrcBlend: 1
    - _Surface: 0
    - _SurfaceSmoothness: 0
    - _TextureBlendingMode: 0
    - _TextureImpact: 1
    - _ThicknessLevel: 3
    - _UVSec: 0
    - _UnityShadowMode: 0
    - _UnityShadowOcclusion: 0
    - _UnityShadowPower: 0.2
    - _UnityShadowSharpness: 1
    - _VertexColorsEnabled: 0
    - _VertexExtrusionSmoothNormals: 0
    - _ZWrite: 1
    - __dirty: 0
    m_Colors:
    - _BaseColor: {r: 1, g: 1, b: 1, a: 1}
    - _Color: {r: 0.76557493, g: 0.8363022, b: 0.8679245, a: 1}
    - _ColorDim: {r: 0, g: 0.054175276, b: 0.5471698, a: 1}
    - _ColorDimCurve: {r: 0.85023, g: 0.85034, b: 0.8504499, a: 0.85056}
    - _ColorDimExtra: {r: 0.85023, g: 0.85034, b: 0.8504499, a: 0.85056}
    - _ColorDimSteps: {r: 0.85023, g: 0.85034, b: 0.8504499, a: 0.85056}
    - _ColorGradient: {r: 0.85023, g: 0.85034, b: 0.85045, a: 0.85056}
    - _CoverageColor: {r: 0.8962264, g: 0.8962264, b: 0.8962264, a: 1}
    - _DetailMapColor: {r: 1, g: 1, b: 1, a: 1}
    - _EmissionColor: {r: 0, g: 0, b: 0, a: 1}
    - _FlatRimColor: {r: 0.85023, g: 0.85034, b: 0.85045, a: 0.85056}
    - _FlatSpecularColor: {r: 0.85023, g: 0.85034, b: 0.85045, a: 0.85056}
    - _LightmapDirection: {r: 0, g: 1, b: 0, a: 0}
    - _OutlineColor: {r: 1, g: 1, b: 1, a: 1}
    - _SurfaceColor: {r: 0.8301887, g: 0.8301887, b: 0.8301887, a: 1}
    - _UnityShadowColor: {r: 0.85023, g: 0.85034, b: 0.8504499, a: 0.85056}
  m_BuildTextureStacks: []
