%YAML 1.1
%TAG !u! tag:unity3d.com,2011:
--- !u!114 &11400000
MonoBehaviour:
  m_ObjectHideFlags: 0
  m_CorrespondingSourceObject: {fileID: 0}
  m_PrefabInstance: {fileID: 0}
  m_PrefabAsset: {fileID: 0}
  m_GameObject: {fileID: 0}
  m_Enabled: 1
  m_EditorHideFlags: 0
  m_Script: {fileID: 11500000, guid: e65ac9d668e6abd42806c410f8f5456a, type: 3}
  m_Name: LootTable_Chests_Medium
  m_EditorClassIdentifier: 
  lootTable:
    lootTable:
    - item: {fileID: 11400000, guid: b7c81baad10529d4ebdc9615b1743274, type: 2}
      chance: 1
    - item: {fileID: 11400000, guid: 8b6cc0d813633b142a471e63c83278e7, type: 2}
      chance: 1
    - item: {fileID: 11400000, guid: 7403c2fbd4f18d7459b68e458ccd7ab8, type: 2}
      chance: 1
    - item: {fileID: 11400000, guid: c96bdea0d9c9c054a9b6daba0a29eb4e, type: 2}
      chance: 1
    - item: {fileID: 11400000, guid: e9907f08add49a5458d7e3f81505cf7c, type: 2}
      chance: 5
    - item: {fileID: 11400000, guid: 0b79dd99ef6641541b61e9cd398f9a6a, type: 2}
      chance: 5
    - item: {fileID: 11400000, guid: ceec5b73d925d3e40803837188072c75, type: 2}
      chance: 5
    - item: {fileID: 11400000, guid: 0bef4836802bcb946a7d861e9313906f, type: 2}
      chance: 5
    - item: {fileID: 11400000, guid: 809037b11b12ee044a868f7b9fcbfd9e, type: 2}
      chance: 5
    - item: {fileID: 11400000, guid: f73e2e8a69606a641bb3ba94113eec68, type: 2}
      chance: 5
    - item: {fileID: 11400000, guid: 975db03a728cdb3469fe9d0c8edc9f8f, type: 2}
      chance: 5
