%YAML 1.1
%TAG !u! tag:unity3d.com,2011:
--- !u!114 &11400000
MonoBehaviour:
  m_ObjectHideFlags: 0
  m_CorrespondingSourceObject: {fileID: 0}
  m_PrefabInstance: {fileID: 0}
  m_PrefabAsset: {fileID: 0}
  m_GameObject: {fileID: 0}
  m_Enabled: 1
  m_EditorHideFlags: 0
  m_Script: {fileID: 11500000, guid: 867e7a47ba1ea1a4b8239091416c8b03, type: 3}
  m_Name: TradeGood_Bowl
  m_EditorClassIdentifier: 
  itemType: 1
  GUID: ITEM_BOWL
  displayName: Clay Bowl
  icon: {fileID: 21300000, guid: 3464c60c9f4d3e544856c74d3f255a8e, type: 3}
  prefab: {fileID: 5851303084138516775, guid: 5fe28ff57efc27c4fb3f5e35fc7aecc5, type: 3}
  rarityColor: {r: 1, g: 1, b: 1, a: 1}
  maxRunes: 0
  stackable: 1
  maxLevel: 0
  buyAmount: 0
  sellAmount: 5
  costCurveToLevel: {fileID: 0}
