%YAML 1.1
%TAG !u! tag:unity3d.com,2011:
--- !u!21 &2100000
Material:
  serializedVersion: 8
  m_ObjectHideFlags: 0
  m_CorrespondingSourceObject: {fileID: 0}
  m_PrefabInstance: {fileID: 0}
  m_PrefabAsset: {fileID: 0}
  m_Name: M_HuF_Body_04
  m_Shader: {fileID: 4800000, guid: bee44b4a58655ee4cbff107302a3e131, type: 3}
  m_Parent: {fileID: 0}
  m_ModifiedSerializedProperties: 0
  m_ValidKeywords:
  - _CELPRIMARYMODE_SINGLE
  - _DETAILMAPBLENDINGMODE_MULTIPLY
  - _EMISSION
  - _GRADIENTSPACE_WORLD
  - _OUTLINESPACE_SCREEN
  - _TEXTUREBLENDINGMODE_MULTIPLY
  m_InvalidKeywords:
  - _UNITYSHADOWMODE_NONE
  m_LightmapFlags: 2
  m_EnableInstancingVariants: 0
  m_DoubleSidedGI: 0
  m_CustomRenderQueue: 2000
  stringTagMap:
    RenderType: Opaque
  disabledShaderPasses: []
  m_LockedProperties: 
  m_SavedProperties:
    serializedVersion: 3
    m_TexEnvs:
    - _ArcherMask:
        m_Texture: {fileID: 2800000, guid: 36610a2f23ec6864d8098fad87c1f7c6, type: 3}
        m_Scale: {x: 1, y: 1}
        m_Offset: {x: 0, y: 0}
    - _BaseColor:
        m_Texture: {fileID: 2800000, guid: f30da1ab1a06fe84b929b3f393b5b930, type: 3}
        m_Scale: {x: 1, y: 1}
        m_Offset: {x: 0, y: 0}
    - _BaseMap:
        m_Texture: {fileID: 2800000, guid: a9d4194ca40a4a43a6483a7aceacc6ad, type: 3}
        m_Scale: {x: 1, y: 1}
        m_Offset: {x: 0, y: 0}
    - _Body_Add:
        m_Texture: {fileID: 2800000, guid: e7dc77def268496cacafa50179554515, type: 3}
        m_Scale: {x: 1, y: 1}
        m_Offset: {x: 0, y: 0}
    - _Body_Add1:
        m_Texture: {fileID: 2800000, guid: fcfc48b0465f43a383e8e72da1a41c07, type: 3}
        m_Scale: {x: 1, y: 1}
        m_Offset: {x: 0, y: 0}
    - _Body_D:
        m_Texture: {fileID: 2800000, guid: a9d4194ca40a4a43a6483a7aceacc6ad, type: 3}
        m_Scale: {x: 1, y: 1}
        m_Offset: {x: 0, y: 0}
    - _Body_N:
        m_Texture: {fileID: 2800000, guid: 56c514207e034b029b4566749673cc6c, type: 3}
        m_Scale: {x: 1, y: 1}
        m_Offset: {x: 0, y: 0}
    - _BumpMap:
        m_Texture: {fileID: 2800000, guid: 56c514207e034b029b4566749673cc6c, type: 3}
        m_Scale: {x: 1, y: 1}
        m_Offset: {x: 0, y: 0}
    - _CelCurveTexture:
        m_Texture: {fileID: 0}
        m_Scale: {x: 1, y: 1}
        m_Offset: {x: 0, y: 0}
    - _CelStepTexture:
        m_Texture: {fileID: 0}
        m_Scale: {x: 1, y: 1}
        m_Offset: {x: 0, y: 0}
    - _Chest_D:
        m_Texture: {fileID: 2800000, guid: e7dc77def268496cacafa50179554515, type: 3}
        m_Scale: {x: 1, y: 1}
        m_Offset: {x: 0, y: 0}
    - _Chest_N:
        m_Texture: {fileID: 2800000, guid: fcfc48b0465f43a383e8e72da1a41c07, type: 3}
        m_Scale: {x: 1, y: 1}
        m_Offset: {x: 0, y: 0}
    - _DK_MaskLower:
        m_Texture: {fileID: 2800000, guid: 6c8c126ed726b884fb155c9f88533368, type: 3}
        m_Scale: {x: 1, y: 1}
        m_Offset: {x: 0, y: 0}
    - _DK_MaskUpper:
        m_Texture: {fileID: 2800000, guid: 07a920472e98d8b4e94db58cf1174ee6, type: 3}
        m_Scale: {x: 1, y: 1}
        m_Offset: {x: 0, y: 0}
    - _DetailAlbedoMap:
        m_Texture: {fileID: 0}
        m_Scale: {x: 1, y: 1}
        m_Offset: {x: 0, y: 0}
    - _DetailMap:
        m_Texture: {fileID: 0}
        m_Scale: {x: 1, y: 1}
        m_Offset: {x: 0, y: 0}
    - _DetailMask:
        m_Texture: {fileID: 0}
        m_Scale: {x: 1, y: 1}
        m_Offset: {x: 0, y: 0}
    - _DetailNormalMap:
        m_Texture: {fileID: 0}
        m_Scale: {x: 1, y: 1}
        m_Offset: {x: 0, y: 0}
    - _EmissionMap:
        m_Texture: {fileID: 2800000, guid: 02b829d72752c1a47a8930f6b094c231, type: 3}
        m_Scale: {x: 1, y: 1}
        m_Offset: {x: 0, y: 0}
    - _Glove_D:
        m_Texture: {fileID: 2800000, guid: e7dc77def268496cacafa50179554515, type: 3}
        m_Scale: {x: 1, y: 1}
        m_Offset: {x: 0, y: 0}
    - _Glove_N:
        m_Texture: {fileID: 2800000, guid: fcfc48b0465f43a383e8e72da1a41c07, type: 3}
        m_Scale: {x: 1, y: 1}
        m_Offset: {x: 0, y: 0}
    - _Mage_LowerMask:
        m_Texture: {fileID: 2800000, guid: 523f31f85ccc56144ae2fa243521de91, type: 3}
        m_Scale: {x: 1, y: 1}
        m_Offset: {x: 0, y: 0}
    - _Mage_UpperMask:
        m_Texture: {fileID: 2800000, guid: 0bb0d3c8bc40b274fb1c3b04add50b9b, type: 3}
        m_Scale: {x: 1, y: 1}
        m_Offset: {x: 0, y: 0}
    - _MainTex:
        m_Texture: {fileID: 2800000, guid: a9d4194ca40a4a43a6483a7aceacc6ad, type: 3}
        m_Scale: {x: 1, y: 1}
        m_Offset: {x: 0, y: 0}
    - _MetallicGlossMap:
        m_Texture: {fileID: 2800000, guid: ed609c002acac61418db37b651c04de7, type: 3}
        m_Scale: {x: 1, y: 1}
        m_Offset: {x: 0, y: 0}
    - _NR_LowerMask:
        m_Texture: {fileID: 2800000, guid: d7e8e7dcc8b380846a2f443d152cafdf, type: 3}
        m_Scale: {x: 1, y: 1}
        m_Offset: {x: 0, y: 0}
    - _NR_UpperMask:
        m_Texture: {fileID: 2800000, guid: 66893b81d5a2ade4f91ecce6804598c6, type: 3}
        m_Scale: {x: 1, y: 1}
        m_Offset: {x: 0, y: 0}
    - _NW_LowerMask:
        m_Texture: {fileID: 2800000, guid: 3e20319eea42dfa4a865931c8aa8d70f, type: 3}
        m_Scale: {x: 1, y: 1}
        m_Offset: {x: 0, y: 0}
    - _NW_UpperMask:
        m_Texture: {fileID: 2800000, guid: 42ef7f8fd771ca741a5dca0ebc44053a, type: 3}
        m_Scale: {x: 1, y: 1}
        m_Offset: {x: 0, y: 0}
    - _NewbieMage_Mask:
        m_Texture: {fileID: 2800000, guid: f9d375215ba9a0e4380dc2cf47b16f74, type: 3}
        m_Scale: {x: 1, y: 1}
        m_Offset: {x: 0, y: 0}
    - _Normal:
        m_Texture: {fileID: 2800000, guid: 57a36b5dc08bb494d8ce72577fbe8bc2, type: 3}
        m_Scale: {x: 1, y: 1}
        m_Offset: {x: 0, y: 0}
    - _OcclusionMap:
        m_Texture: {fileID: 0}
        m_Scale: {x: 1, y: 1}
        m_Offset: {x: 0, y: 0}
    - _Pants_D:
        m_Texture: {fileID: 2800000, guid: e7dc77def268496cacafa50179554515, type: 3}
        m_Scale: {x: 1, y: 1}
        m_Offset: {x: 0, y: 0}
    - _Pants_N:
        m_Texture: {fileID: 2800000, guid: fcfc48b0465f43a383e8e72da1a41c07, type: 3}
        m_Scale: {x: 1, y: 1}
        m_Offset: {x: 0, y: 0}
    - _ParallaxMap:
        m_Texture: {fileID: 0}
        m_Scale: {x: 1, y: 1}
        m_Offset: {x: 0, y: 0}
    - _PeasantMask:
        m_Texture: {fileID: 2800000, guid: ff80a1f91b05ee14ebd3e3e4aeb431e3, type: 3}
        m_Scale: {x: 1, y: 1}
        m_Offset: {x: 0, y: 0}
    - _SpecGlossMap:
        m_Texture: {fileID: 0}
        m_Scale: {x: 1, y: 1}
        m_Offset: {x: 0, y: 0}
    - _Underhair:
        m_Texture: {fileID: 0}
        m_Scale: {x: 1, y: 1}
        m_Offset: {x: 0, y: 0}
    - _Underwear_D:
        m_Texture: {fileID: 2800000, guid: e7dc77def268496cacafa50179554515, type: 3}
        m_Scale: {x: 1, y: 1}
        m_Offset: {x: 0, y: 0}
    - _Underwear_N:
        m_Texture: {fileID: 2800000, guid: fcfc48b0465f43a383e8e72da1a41c07, type: 3}
        m_Scale: {x: 1, y: 1}
        m_Offset: {x: 0, y: 0}
    - _texcoord:
        m_Texture: {fileID: 0}
        m_Scale: {x: 1, y: 1}
        m_Offset: {x: 0, y: 0}
    - unity_Lightmaps:
        m_Texture: {fileID: 0}
        m_Scale: {x: 1, y: 1}
        m_Offset: {x: 0, y: 0}
    - unity_LightmapsInd:
        m_Texture: {fileID: 0}
        m_Scale: {x: 1, y: 1}
        m_Offset: {x: 0, y: 0}
    - unity_ShadowMasks:
        m_Texture: {fileID: 0}
        m_Scale: {x: 1, y: 1}
        m_Offset: {x: 0, y: 0}
    m_Ints: []
    m_Floats:
    - _AlphaClip: 0
    - _AlphaToMask: 0
    - _ArmorArcherBoots: 1
    - _ArmorArcherChest: 1
    - _ArmorArcherGloves: 1
    - _ArmorArcherPants: 1
    - _ArmorDeathknightArmbandages: 1
    - _ArmorDeathknightBoots: 1
    - _ArmorDeathknightChest: 1
    - _ArmorDeathknightGloves: 1
    - _ArmorDeathknightPants: 1
    - _ArmorMageArmbandages: 1
    - _ArmorMageBoots: 1
    - _ArmorMageChest: 1
    - _ArmorMageGloves: 1
    - _ArmorMagePants: 1
    - _ArmorMageRobe: 1
    - _ArmorNewbieMageBelt: 1
    - _ArmorNewbieMageBoots: 1
    - _ArmorNewbieMageChest: 1
    - _ArmorNewbieMageRobe: 1
    - _ArmorNewbieRangerBelt: 1
    - _ArmorNewbieRangerBoots: 1
    - _ArmorNewbieRangerChest: 1
    - _ArmorNewbieRangerGloves: 1
    - _ArmorNewbieRangerPants: 1
    - _ArmorNewbieWarriorBelt: 1
    - _ArmorNewbieWarriorBoots: 1
    - _ArmorNewbieWarriorChest: 1
    - _ArmorNewbieWarriorGloves: 1
    - _ArmorNewbieWarriorPants: 1
    - _ArmorPeasantBoots: 1
    - _ArmorPeasantPants: 1
    - _ArmorPeasantShirt: 1
    - _BaseMapPremultiply: 0
    - _Blend: 0
    - _BlendModePreserveSpecular: 1
    - _BumpScale: 1
    - _CameraDistanceImpact: 0
    - _CelExtraEnabled: 0
    - _CelNumSteps: 3
    - _CelPrimaryMode: 1
    - _ClearCoatMask: 0
    - _ClearCoatSmoothness: 0
    - _Cull: 2
    - _Cutoff: 0.5
    - _DetailAlbedoMapScale: 1
    - _DetailMapBlendingMode: 0
    - _DetailMapImpact: 0
    - _DetailNormalMapScale: 1
    - _DstBlend: 0
    - _DstBlendAlpha: 0
    - _EnvironmentReflections: 0
    - _FlatRimEdgeSmoothness: 0.5
    - _FlatRimLightAlign: 0
    - _FlatRimSize: 0.5
    - _FlatSpecularEdgeSmoothness: 0
    - _FlatSpecularSize: 0.1
    - _Flatness: 1
    - _FlatnessExtra: 1
    - _Gloss: 0
    - _GlossMapScale: 1
    - _Glossiness: 0
    - _GlossyReflections: 0
    - _GradientAngle: 0
    - _GradientCenterX: 0
    - _GradientCenterY: 0
    - _GradientEnabled: 0
    - _GradientSize: 10
    - _GradientSpace: 0
    - _HasUnderhair: 0
    - _HueShift: 0
    - _HueShiftEnabled: 0
    - _LightContribution: 0.8
    - _LightFalloffSize: 0.001
    - _LightmapDirectionPitch: 0
    - _LightmapDirectionYaw: 0
    - _Metallic: 0
    - _Mode: 0
    - _OcclusionStrength: 1
    - _OutlineDepthOffset: 0
    - _OutlineEnabled: 0
    - _OutlineScale: 1
    - _OutlineSpace: 0
    - _OutlineWidth: 1
    - _OverrideLightmapDir: 0
    - _Parallax: 0.02
    - _QueueOffset: 0
    - _ReceiveShadows: 1
    - _RimEnabled: 0
    - _SelfShadingSize: 0.5
    - _SelfShadingSizeExtra: 0.6
    - _ShadowEdgeSize: 0.001
    - _ShadowEdgeSizeExtra: 0.05
    - _Smoothness: 1
    - _SmoothnessTextureChannel: 0
    - _SpecularEnabled: 0
    - _SpecularHighlights: 0
    - _SrcBlend: 1
    - _SrcBlendAlpha: 1
    - _Surface: 0
    - _TextureBlendingMode: 0
    - _TextureImpact: 1
    - _UVSec: 0
    - _UnityShadowMode: 0
    - _UnityShadowOcclusion: 0
    - _UnityShadowPower: 0.2
    - _UnityShadowSharpness: 1
    - _VertexColorsEnabled: 0
    - _VertexExtrusionSmoothNormals: 0
    - _WorkflowMode: 1
    - _ZWrite: 1
    - __dirty: 1
    m_Colors:
    - _BaseColor: {r: 1, g: 1, b: 1, a: 1}
    - _Color: {r: 1, g: 1, b: 1, a: 1}
    - _ColorDim: {r: 0.5, g: 0.5, b: 0.5, a: 1}
    - _ColorDimCurve: {r: 0.85023, g: 0.85034, b: 0.8504499, a: 0.85056}
    - _ColorDimExtra: {r: 0.85023, g: 0.85034, b: 0.8504499, a: 0.85056}
    - _ColorDimSteps: {r: 0.85023, g: 0.85034, b: 0.8504499, a: 0.85056}
    - _ColorGradient: {r: 0.85023, g: 0.85034, b: 0.85045, a: 0.85056}
    - _DetailMapColor: {r: 1, g: 1, b: 1, a: 1}
    - _EmissionColor: {r: 0.000003829657, g: 0.000003829657, b: 0.000003829657, a: 1}
    - _FlatRimColor: {r: 0.85023, g: 0.85034, b: 0.85045, a: 0.85056}
    - _FlatSpecularColor: {r: 0.85023, g: 0.85034, b: 0.85045, a: 0.85056}
    - _LightmapDirection: {r: 0, g: 1, b: 0, a: 0}
    - _OutlineColor: {r: 1, g: 1, b: 1, a: 1}
    - _SpecColor: {r: 0.19999996, g: 0.19999996, b: 0.19999996, a: 1}
    - _UnityShadowColor: {r: 0.85023, g: 0.85034, b: 0.8504499, a: 0.85056}
  m_BuildTextureStacks: []
--- !u!114 &1192095122414259021
MonoBehaviour:
  m_ObjectHideFlags: 11
  m_CorrespondingSourceObject: {fileID: 0}
  m_PrefabInstance: {fileID: 0}
  m_PrefabAsset: {fileID: 0}
  m_GameObject: {fileID: 0}
  m_Enabled: 1
  m_EditorHideFlags: 0
  m_Script: {fileID: 11500000, guid: d0353a89b1f911e48b9e16bdc9f2e058, type: 3}
  m_Name: 
  m_EditorClassIdentifier: 
  version: 7
