%YAML 1.1
%TAG !u! tag:unity3d.com,2011:
--- !u!114 &11400000
MonoBehaviour:
  m_ObjectHideFlags: 0
  m_CorrespondingSourceObject: {fileID: 0}
  m_PrefabInstance: {fileID: 0}
  m_PrefabAsset: {fileID: 0}
  m_GameObject: {fileID: 0}
  m_Enabled: 1
  m_EditorHideFlags: 0
  m_Script: {fileID: 11500000, guid: 053e8fd870aba2a46a7a21682643c6ce, type: 3}
  m_Name: Entity_GhostMajor
  m_EditorClassIdentifier: 
  GUID: ENTITY_GHOSTMAJOR
  Name: Major Ghost
  prefab: {fileID: 5303890732908634435, guid: 25d2b8dca44764740af9af78b2143a4b, type: 3}
  defaultWeapon: {fileID: 11400000, guid: 062eaa8070bc055449c9c9d78005573a, type: 2}
  defaultShield: {fileID: 11400000, guid: 7403c2fbd4f18d7459b68e458ccd7ab8, type: 2}
  listOfMaterials:
  - {fileID: 2100000, guid: 67bb6debdaec8a34a8c3fc1684c704fe, type: 2}
  interactsWith: 1
  rollingStunLayer:
    serializedVersion: 2
    m_Bits: 2304
  totalHealth: 30
  maxDetectionRange: 30
  hearDetectionRange: 10
  movementSpeed: 7
  roamMovementSpeedModifier: 0.25
  strafeSpeedModifier: 0.8
  crawlModifer: 2.5
  rollModifer: 12.5
  rollTime: 0.5
  gravity: -55
  rotationSpeed: 500
  rollingStunTolerence: 0.85
  hopForce: 17
  hopModifier: 1.25
  rollingWallStunTimer: 1
  stunKnockbackPower: 5
  knockBackTimer: 0.15
  crawlingTransition: 0.25
  jumpRecovery: 0.15
  rollWallDetectionRadius: 0.1
  attackWallDetectionRadius: 0.1
  graceTime: 0.01
  idleTime: 1
  roamAroundTime: 4
  runTimeToWall: 0.15
  strafeTimer: 0.15
  faceLockedTarget: 0
  autoHops: 1
  leaseDistance: 20
  lootTableSO: {fileID: 11400000, guid: f4f602fe88fd7dc43a868c237a5dc188, type: 2}
