%YAML 1.1
%TAG !u! tag:unity3d.com,2011:
--- !u!114 &11400000
MonoBehaviour:
  m_ObjectHideFlags: 0
  m_CorrespondingSourceObject: {fileID: 0}
  m_PrefabInstance: {fileID: 0}
  m_PrefabAsset: {fileID: 0}
  m_GameObject: {fileID: 0}
  m_Enabled: 1
  m_EditorHideFlags: 0
  m_Script: {fileID: 11500000, guid: 3a189bb168d8d90478a09ea08c2f3d72, type: 3}
  m_Name: DefaultObject
  m_EditorClassIdentifier: 
  m_AddressableAssetSettingsGuid: f88c7f67fcd3c144184322d4bd5a2cbb
