{
    "name": "UIInputAction",
    "maps": [
        {
            "name": "UIAction",
            "id": "2b497ffd-d434-48d5-b9a1-3263c7a2ba82",
            "actions": [
                {
                    "name": "SendToContainer",
                    "type": "Button",
                    "id": "c8447eb2-e22d-47c6-ba60-b03c7a53f66c",
                    "expectedControlType": "Button",
                    "processors": "",
                    "interactions": "",
                    "initialStateCheck": false
                },
                {
                    "name": "SendOneToContainer",
                    "type": "Button",
                    "id": "07b6cc3b-4058-44a1-9541-1645166c21ad",
                    "expectedControlType": "Button",
                    "processors": "",
                    "interactions": "",
                    "initialStateCheck": false
                },
                {
                    "name": "SendToInventory",
                    "type": "Button",
                    "id": "43ca1efe-451a-4982-851c-7a9859189106",
                    "expectedControlType": "Button",
                    "processors": "",
                    "interactions": "",
                    "initialStateCheck": false
                },
                {
                    "name": "DropItem",
                    "type": "Button",
                    "id": "855579cd-9fe8-46e5-b78e-aa38f5114cc7",
                    "expectedControlType": "Button",
                    "processors": "",
                    "interactions": "",
                    "initialStateCheck": false
                },
                {
                    "name": "EquipItem",
                    "type": "Button",
                    "id": "e90f2782-b015-4b11-8a04-246228bbf63c",
                    "expectedControlType": "Button",
                    "processors": "",
                    "interactions": "",
                    "initialStateCheck": false
                },
                {
                    "name": "SelectItem",
                    "type": "Button",
                    "id": "f6e168bf-c3ef-4af4-997c-a39ccd2e8b99",
                    "expectedControlType": "Button",
                    "processors": "",
                    "interactions": "",
                    "initialStateCheck": false
                },
                {
                    "name": "CloseMenu",
                    "type": "Button",
                    "id": "a56b32b1-aa25-4ebb-a6d8-21b2ef2e0a42",
                    "expectedControlType": "Button",
                    "processors": "",
                    "interactions": "",
                    "initialStateCheck": false
                }
            ],
            "bindings": [
                {
                    "name": "One Modifier",
                    "id": "0a53a194-40cd-442d-a8f4-6d1d9edb9094",
                    "path": "OneModifier",
                    "interactions": "",
                    "processors": "",
                    "groups": "",
                    "action": "SendToContainer",
                    "isComposite": true,
                    "isPartOfComposite": false
                },
                {
                    "name": "modifier",
                    "id": "56509302-02a3-46d8-bf73-3401ae2fc678",
                    "path": "<Keyboard>/shift",
                    "interactions": "",
                    "processors": "",
                    "groups": "",
                    "action": "SendToContainer",
                    "isComposite": false,
                    "isPartOfComposite": true
                },
                {
                    "name": "binding",
                    "id": "a9d66e8d-4bd9-4e21-9b0e-215468c8d083",
                    "path": "<Mouse>/rightButton",
                    "interactions": "",
                    "processors": "",
                    "groups": "",
                    "action": "SendToContainer",
                    "isComposite": false,
                    "isPartOfComposite": true
                },
                {
                    "name": "",
                    "id": "8581e4af-b62b-497a-9691-6e58f338e809",
                    "path": "<Mouse>/leftButton",
                    "interactions": "",
                    "processors": "",
                    "groups": "",
                    "action": "SelectItem",
                    "isComposite": false,
                    "isPartOfComposite": false
                },
                {
                    "name": "",
                    "id": "f8533fb6-6cb0-4afb-a6ad-dece1d90acb6",
                    "path": "<Gamepad>/buttonSouth",
                    "interactions": "",
                    "processors": "",
                    "groups": "",
                    "action": "SelectItem",
                    "isComposite": false,
                    "isPartOfComposite": false
                },
                {
                    "name": "",
                    "id": "59e9b5a0-689c-43e8-b72d-21b49c6c18bd",
                    "path": "<Mouse>/rightButton",
                    "interactions": "",
                    "processors": "",
                    "groups": "",
                    "action": "SendToInventory",
                    "isComposite": false,
                    "isPartOfComposite": false
                },
                {
                    "name": "",
                    "id": "c2a7b817-c16a-4ba0-82a7-f8a04bc1f7f3",
                    "path": "<Mouse>/rightButton",
                    "interactions": "",
                    "processors": "",
                    "groups": "",
                    "action": "EquipItem",
                    "isComposite": false,
                    "isPartOfComposite": false
                },
                {
                    "name": "One Modifier",
                    "id": "a541b369-37f9-478e-80ec-38798b4a36e3",
                    "path": "OneModifier",
                    "interactions": "",
                    "processors": "",
                    "groups": "",
                    "action": "SendOneToContainer",
                    "isComposite": true,
                    "isPartOfComposite": false
                },
                {
                    "name": "modifier",
                    "id": "c27e6b0b-d109-45e9-a49c-ed8bb8fac7b6",
                    "path": "<Keyboard>/alt",
                    "interactions": "",
                    "processors": "",
                    "groups": "",
                    "action": "SendOneToContainer",
                    "isComposite": false,
                    "isPartOfComposite": true
                },
                {
                    "name": "binding",
                    "id": "26322645-72a0-43ad-83cc-4c5dc0c340f3",
                    "path": "<Mouse>/rightButton",
                    "interactions": "",
                    "processors": "",
                    "groups": "",
                    "action": "SendOneToContainer",
                    "isComposite": false,
                    "isPartOfComposite": true
                },
                {
                    "name": "",
                    "id": "ce4b802d-8def-45c5-a035-49747af043e9",
                    "path": "<Gamepad>/buttonSouth",
                    "interactions": "",
                    "processors": "",
                    "groups": "",
                    "action": "EquipItem",
                    "isComposite": false,
                    "isPartOfComposite": false
                },
                {
                    "name": "",
                    "id": "fd1a1148-5d4c-44de-86bf-244d3ac979c5",
                    "path": "<Keyboard>/escape",
                    "interactions": "",
                    "processors": "",
                    "groups": "",
                    "action": "CloseMenu",
                    "isComposite": false,
                    "isPartOfComposite": false
                },
                {
                    "name": "",
                    "id": "2d84425b-b5af-4ab5-8668-4554898e9862",
                    "path": "<Gamepad>/buttonEast",
                    "interactions": "",
                    "processors": "",
                    "groups": "",
                    "action": "CloseMenu",
                    "isComposite": false,
                    "isPartOfComposite": false
                },
                {
                    "name": "",
                    "id": "c0f270b3-3677-4f7b-8b0e-aa6062555381",
                    "path": "<Gamepad>/buttonWest",
                    "interactions": "",
                    "processors": "",
                    "groups": "",
                    "action": "SendToContainer",
                    "isComposite": false,
                    "isPartOfComposite": false
                },
                {
                    "name": "",
                    "id": "2f4fdef3-9af5-4dcf-8281-a00bf629e8d4",
                    "path": "<Keyboard>/f",
                    "interactions": "",
                    "processors": "",
                    "groups": "",
                    "action": "DropItem",
                    "isComposite": false,
                    "isPartOfComposite": false
                },
                {
                    "name": "",
                    "id": "c09c0a2f-64ed-4712-a285-cca4bf140d51",
                    "path": "<Gamepad>/buttonNorth",
                    "interactions": "",
                    "processors": "",
                    "groups": "",
                    "action": "DropItem",
                    "isComposite": false,
                    "isPartOfComposite": false
                }
            ]
        }
    ],
    "controlSchemes": []
}